^H:\FACULTAD\CONSTRUCCIÓNDESISTEMASDECOMPUTO\ENTREGA 2024\CODIGO\REALWALKER_RESTFUL_SERVICE\REALWALKER_RESTFUL_SERVICE\REALWALKER_RESTFUL_SERVICE.CPP
H:\FACULTAD\CONSTRUCCIóNDESISTEMASDECOMPUTO\ENTREGA 2024\CODIGO\REALWALKER_RESTFUL_SERVICE\REALWALKER_RESTFUL_SERVICE\X64\RELEASE\VC142.PDB
H:\FACULTAD\CONSTRUCCIóNDESISTEMASDECOMPUTO\ENTREGA 2024\CODIGO\REALWALKER_RESTFUL_SERVICE\REALWALKER_RESTFUL_SERVICE\X64\RELEASE\REALWALKER_RESTFUL_SERVICE.OBJ
